Practica02/microc_tb.vcd
$date
	Wed Nov 22 11:50:38 2023
$end
$version
	Icarus Verilog
$end
$timescale
	10ps
$end
$scope module microc_tb $end
$var wire 1 ! test_zero $end
$var wire 6 " test_Opcode [5:0] $end
$var reg 3 # test_ALUOp [2:0] $end
$var reg 1 $ test_clk $end
$var reg 1 % test_reset $end
$var reg 1 & test_s_inc $end
$var reg 1 ' test_s_inm $end
$var reg 1 ( test_we $end
$var reg 1 ) test_wez $end
$scope module microc1 $end
$var wire 3 * ALUOp [2:0] $end
$var wire 1 $ clk $end
$var wire 1 % reset $end
$var wire 1 & s_inc $end
$var wire 1 ' s_inm $end
$var wire 1 ( we $end
$var wire 1 ) wez $end
$var wire 1 ! zero $end
$var wire 1 + zalu $end
$var wire 10 , sum_out [9:0] $end
$var wire 10 - nuevo_PC [9:0] $end
$var wire 8 . mux_alu_out [7:0] $end
$var wire 4 / mux3_out [3:0] $end
$var wire 16 0 instruccion [15:0] $end
$var wire 8 1 inm [7:0] $end
$var wire 10 2 dir_salto [9:0] $end
$var wire 8 3 WD3 [7:0] $end
$var wire 4 4 WA3 [3:0] $end
$var wire 8 5 RD2 [7:0] $end
$var wire 8 6 RD1 [7:0] $end
$var wire 4 7 RA2 [3:0] $end
$var wire 4 8 RA1 [3:0] $end
$var wire 10 9 PC_actual [9:0] $end
$var wire 6 : Opcode [5:0] $end
$scope module alu1 $end
$var wire 3 ; Op [2:0] $end
$var wire 8 < B [7:0] $end
$var wire 8 = A [7:0] $end
$var reg 8 > S [7:0] $end
$var reg 1 + zero $end
$upscope $end
$scope module ffz $end
$var wire 1 ) carga $end
$var wire 1 $ clk $end
$var wire 1 + d $end
$var wire 1 % reset $end
$var reg 1 ! q $end
$upscope $end
$scope module memprog1 $end
$var wire 16 ? Datum [15:0] $end
$var wire 1 $ clk $end
$var wire 10 @ Address [9:0] $end
$upscope $end
$scope module mux3 $end
$var wire 4 A D0 [3:0] $end
$var wire 4 B D1 [3:0] $end
$var wire 1 ' s $end
$var wire 4 C Y [3:0] $end
$var parameter 32 D WIDTH $end
$upscope $end
$scope module mux_alu $end
$var wire 8 E D1 [7:0] $end
$var wire 1 ' s $end
$var wire 8 F Y [7:0] $end
$var wire 8 G D0 [7:0] $end
$var parameter 32 H WIDTH $end
$upscope $end
$scope module mux_pc $end
$var wire 10 I D0 [9:0] $end
$var wire 1 & s $end
$var wire 10 J Y [9:0] $end
$var wire 10 K D1 [9:0] $end
$var parameter 32 L WIDTH $end
$upscope $end
$scope module pc $end
$var wire 10 M D [9:0] $end
$var wire 1 $ clk $end
$var wire 1 % reset $end
$var parameter 32 N WIDTH $end
$var reg 10 O Q [9:0] $end
$upscope $end
$scope module regfile1 $end
$var wire 4 P RA1 [3:0] $end
$var wire 4 Q RA2 [3:0] $end
$var wire 4 R WA3 [3:0] $end
$var wire 8 S WD3 [7:0] $end
$var wire 1 $ clk $end
$var wire 1 ( we3 $end
$var wire 8 T RD2 [7:0] $end
$var wire 8 U RD1 [7:0] $end
$upscope $end
$scope module sum1 $end
$var wire 10 V A [9:0] $end
$var wire 10 W B [9:0] $end
$var wire 10 X Y [9:0] $end
$upscope $end
$upscope $end
$upscope $end
$enddefinitions $end
$comment Show the parameter values. $end
$dumpall
b1010 N
b1010 L
b1000 H
b100 D
$end
#0
$dumpvars
b1 X
b1 W
b0 V
bx U
b0 T
bx S
b1010 R
b1010 Q
bx0x0 P
b0 O
b0x0x0x0xx M
b1 K
b0x0x0x0xx J
b10101010 I
b0 G
b0x0x0 F
b1010 E
bx0x0 C
b1010 B
b0 A
b0 @
b1000010101010 ?
bx >
bx =
b0x0x0 <
bx ;
b100 :
b0 9
b0 8
b1010 7
bx 6
b0 5
b1010 4
bx 3
b10101010 2
b1010 1
b1000010101010 0
bx0x0 /
b0x0x0 .
b0x0x0x0xx -
b1 ,
x+
bx *
x)
x(
x'
x&
1%
1$
bx #
b100 "
0!
$end
#1000
0%
#2000
b0 6
b0 =
b0 U
0+
b1010 3
b1010 >
b1010 S
b1 -
b1 J
b1 M
b1010 /
b1010 C
b1010 P
b1010 .
b1010 <
b1010 F
0)
b0 #
b0 *
b0 ;
1(
1&
1'
0$
#4000
b1100 /
b1100 C
b1100 P
b10 -
b10 J
b10 M
b1100 4
b1100 B
b1100 R
b11000 "
b11000 :
b10101100 2
b10101100 I
b0 6
b0 =
b0 U
b1010 5
b1010 G
b1010 T
b10 ,
b10 K
b10 X
b110000010101100 0
b110000010101100 ?
b1 9
b1 @
b1 O
b1 V
1$
#6000
b0 /
b0 C
b0 P
0$
0'
#8000
1+
b0 3
b0 >
b0 S
b0 .
b0 <
b0 F
b0 5
b0 G
b0 T
b11 -
b11 J
b11 M
b0 1
b0 E
b1 4
b1 B
b1 R
b0 7
b0 Q
b1 2
b1 I
b11 ,
b11 K
b11 X
b110000000000001 0
b110000000000001 ?
b10 9
b10 @
b10 O
b10 V
1$
#10000
0$
#12000
b100 -
b100 J
b100 M
b10 1
b10 E
b1100 4
b1100 B
b1100 R
b10 7
b10 Q
b1000 "
b1000 :
b101100 2
b101100 I
b100 ,
b100 K
b100 X
b10000000101100 0
b10000000101100 ?
b11 9
b11 @
b11 O
b11 V
1$
#14000
b1010 6
b1010 =
b1010 U
0+
b1000 3
b1000 >
b1000 S
b1100 /
b1100 C
b1100 P
b10 .
b10 <
b10 F
0$
1)
b11 #
b11 *
b11 ;
1'
#16000
b10101100 .
b10101100 <
b10101100 F
b1011 /
b1011 C
b1011 P
b1000 5
b1000 G
b1000 T
b1010100 3
b1010100 >
b1010100 S
b101 -
b101 J
b101 M
b10101100 1
b10101100 E
b1011 4
b1011 B
b1011 R
b1100 7
b1100 Q
b1010 8
b1010 A
b10110 "
b10110 :
b1011001011 2
b1011001011 I
b0 6
b0 =
b0 U
b101 ,
b101 K
b101 X
b101101011001011 0
b101101011001011 ?
b100 9
b100 @
b100 O
b100 V
1$
#18000
b1010 6
b1010 =
b1010 U
b10 3
b10 >
b10 S
b1010 /
b1010 C
b1010 P
b1000 .
b1000 <
b1000 F
0$
0'
#20000
1+
b0 3
b0 >
b0 S
b0 .
b0 <
b0 F
b0 6
b0 =
b0 U
b0 5
b0 G
b0 T
b0 /
b0 C
b0 P
b110 -
b110 J
b110 M
b0 1
b0 E
b111 4
b111 B
b111 R
b0 7
b0 Q
b0 8
b0 A
b100100 "
b100100 :
b111 2
b111 I
b110 ,
b110 K
b110 X
b1001000000000111 0
b1001000000000111 ?
b101 9
b101 @
b101 O
b101 V
1$
#22000
b111 -
b111 J
b111 M
0$
0&
0)
0(
#24000
b11100 -
b11100 J
b11100 M
b1 1
b1 E
b1100 4
b1100 B
b1100 R
b1 7
b1 Q
b1100 "
b1100 :
b11100 2
b11100 I
b1000 ,
b1000 K
b1000 X
b11000000011100 0
b11000000011100 ?
b111 9
b111 @
b111 O
b111 V
1$
#26000
b1000 6
b1000 =
b1000 U
0+
b1001 3
b1001 >
b1001 S
b1000 -
b1000 J
b1000 M
b1100 /
b1100 C
b1100 P
b1 .
b1 <
b1 F
0$
1)
b10 #
b10 *
b10 ;
1(
1&
1'
#28000
b1 /
b1 C
b1 P
b1 3
b1 >
b1 S
b1001 -
b1001 J
b1001 M
b1 4
b1 B
b1 R
b10001 2
b10001 I
b0 6
b0 =
b0 U
b1001 ,
b1001 K
b1001 X
b11000000010001 0
b11000000010001 ?
b1000 9
b1000 @
b1000 O
b1000 V
1$
#30000
0$
#32000
1+
b0 .
b0 <
b0 F
b100 /
b100 C
b100 P
b0 3
b0 >
b0 S
b1010 -
b1010 J
b1010 M
b0 1
b0 E
b100 4
b100 B
b100 R
b0 7
b0 Q
b101000 "
b101000 :
b100 2
b100 I
b0 6
b0 =
b0 U
b0 5
b0 G
b0 T
b1010 ,
b1010 K
b1010 X
b1010000000000100 0
b1010000000000100 ?
b1001 9
b1001 @
b1001 O
b1001 V
1$
#34000
b100 -
b100 J
b100 M
0$
0&
0)
0(
#36000
0+
b10101110 3
b10101110 >
b10101110 S
b10 6
b10 =
b10 U
b10101100 .
b10101100 <
b10101100 F
b1011 /
b1011 C
b1011 P
b1001 5
b1001 G
b1001 T
b1011001011 -
b1011001011 J
b1011001011 M
b10101100 1
b10101100 E
b1011 4
b1011 B
b1011 R
b1100 7
b1100 Q
b1010 8
b1010 A
b10110 "
b10110 :
b1011001011 2
b1011001011 I
b101 ,
b101 K
b101 X
b101101011001011 0
b101101011001011 ?
b100 9
b100 @
b100 O
b100 V
1$
#38000
b1010 6
b1010 =
b1010 U
b1 3
b1 >
b1 S
b101 -
b101 J
b101 M
b1010 /
b1010 C
b1010 P
b1001 .
b1001 <
b1001 F
0$
1)
b11 #
b11 *
b11 ;
1(
1&
0'
#40000
1+
b0 3
b0 >
b0 S
b0 .
b0 <
b0 F
b0 6
b0 =
b0 U
b0 5
b0 G
b0 T
b0 /
b0 C
b0 P
b110 -
b110 J
b110 M
b0 1
b0 E
b111 4
b111 B
b111 R
b0 7
b0 Q
b0 8
b0 A
b100100 "
b100100 :
b111 2
b111 I
b110 ,
b110 K
b110 X
b1001000000000111 0
b1001000000000111 ?
b101 9
b101 @
b101 O
b101 V
1$
#42000
b111 -
b111 J
b111 M
0$
0&
0)
0(
#44000
0+
b11111111 3
b11111111 >
b11111111 S
b1 .
b1 <
b1 F
b1 5
b1 G
b1 T
b11100 -
b11100 J
b11100 M
b1 1
b1 E
b1100 4
b1100 B
b1100 R
b1 7
b1 Q
b1100 "
b1100 :
b11100 2
b11100 I
b1000 ,
b1000 K
b1000 X
b11000000011100 0
b11000000011100 ?
b111 9
b111 @
b111 O
b111 V
1$
#46000
b1001 6
b1001 =
b1001 U
b1010 3
b1010 >
b1010 S
b1000 -
b1000 J
b1000 M
b1100 /
b1100 C
b1100 P
0$
1)
b10 #
b10 *
b10 ;
1(
1&
1'
#48000
b1 /
b1 C
b1 P
b10 3
b10 >
b10 S
b1001 -
b1001 J
b1001 M
b1 4
b1 B
b1 R
b10001 2
b10001 I
b1 6
b1 =
b1 U
b1001 ,
b1001 K
b1001 X
b11000000010001 0
b11000000010001 ?
b1000 9
b1000 @
b1000 O
b1000 V
1$
#50000
0$
#52000
1+
b0 .
b0 <
b0 F
b100 /
b100 C
b100 P
b0 3
b0 >
b0 S
b1010 -
b1010 J
b1010 M
b0 1
b0 E
b100 4
b100 B
b100 R
b0 7
b0 Q
b101000 "
b101000 :
b100 2
b100 I
b0 6
b0 =
b0 U
b0 5
b0 G
b0 T
b1010 ,
b1010 K
b1010 X
b1010000000000100 0
b1010000000000100 ?
b1001 9
b1001 @
b1001 O
b1001 V
1$
#54000
b100 -
b100 J
b100 M
0$
0&
0)
0(
#56000
0+
b10101101 3
b10101101 >
b10101101 S
b1 6
b1 =
b1 U
b10101100 .
b10101100 <
b10101100 F
b1011 /
b1011 C
b1011 P
b1010 5
b1010 G
b1010 T
b1011001011 -
b1011001011 J
b1011001011 M
b10101100 1
b10101100 E
b1011 4
b1011 B
b1011 R
b1100 7
b1100 Q
b1010 8
b1010 A
b10110 "
b10110 :
b1011001011 2
b1011001011 I
b101 ,
b101 K
b101 X
b101101011001011 0
b101101011001011 ?
b100 9
b100 @
b100 O
b100 V
1$
#58000
1+
b1010 6
b1010 =
b1010 U
b0 3
b0 >
b0 S
b101 -
b101 J
b101 M
b1010 /
b1010 C
b1010 P
b1010 .
b1010 <
b1010 F
0$
1)
b11 #
b11 *
b11 ;
1(
1&
0'
#60000
b0 .
b0 <
b0 F
b0 6
b0 =
b0 U
b0 5
b0 G
b0 T
b0 /
b0 C
b0 P
b110 -
b110 J
b110 M
b0 1
b0 E
b111 4
b111 B
b111 R
b0 7
b0 Q
b0 8
b0 A
b100100 "
b100100 :
b111 2
b111 I
1!
b110 ,
b110 K
b110 X
b1001000000000111 0
b1001000000000111 ?
b101 9
b101 @
b101 O
b101 V
1$
#62000
0$
0)
0(
#64000
b111 -
b111 J
b111 M
b110 4
b110 B
b110 R
b101000 "
b101000 :
b110 2
b110 I
b111 ,
b111 K
b111 X
b1010000000000110 0
b1010000000000110 ?
b110 9
b110 @
b110 O
b110 V
1$
#66000
b110 -
b110 J
b110 M
0$
0&
