Practica01/Modificación_pracitca01/practica01/alu.vcd
$date
	Thu Oct 26 15:36:31 2023
$end
$version
	Icarus Verilog
$end
$timescale
	10ps
$end
$scope module alu_tb $end
$var wire 1 ! t_z $end
$var wire 1 " t_s $end
$var wire 1 # t_c $end
$var wire 4 $ t_R [3:0] $end
$var reg 1 % error $end
$var reg 1 & error_R $end
$var reg 1 ' error_c $end
$var reg 1 ( error_s $end
$var reg 1 ) error_z $end
$var reg 4 * t_A [3:0] $end
$var reg 4 + t_B [3:0] $end
$var reg 2 , t_Op [1:0] $end
$var reg 1 - t_cin $end
$var reg 1 . t_l $end
$var integer 32 / errores [31:0] $end
$scope module mat $end
$var wire 4 0 A [3:0] $end
$var wire 2 1 ALUOP [1:0] $end
$var wire 4 2 B [3:0] $end
$var wire 1 - c_in $end
$var wire 4 3 cero [3:0] $end
$var wire 1 4 cpl $end
$var wire 1 . l $end
$var wire 1 5 op1_A $end
$var wire 1 6 op2_B $end
$var wire 4 7 uno [3:0] $end
$var wire 1 ! zero $end
$var wire 4 8 ul_out [3:0] $end
$var wire 4 9 sum_out [3:0] $end
$var wire 1 : sum_c_out $end
$var wire 1 " sign $end
$var wire 4 ; mux_op2_B_out [3:0] $end
$var wire 4 < mux_add1_out [3:0] $end
$var wire 1 # c_out $end
$var wire 1 = add1 $end
$var wire 4 > R [3:0] $end
$var wire 4 ? OP2 [3:0] $end
$var wire 4 @ OP1 [3:0] $end
$scope module cpl1 $end
$var wire 1 4 cpl $end
$var wire 4 A Out [3:0] $end
$var wire 4 B Inp [3:0] $end
$upscope $end
$scope module mux_R $end
$var wire 1 . s $end
$var wire 4 C Out [3:0] $end
$var wire 4 D B [3:0] $end
$var wire 4 E A [3:0] $end
$upscope $end
$scope module mux_add1 $end
$var wire 4 F A [3:0] $end
$var wire 4 G B [3:0] $end
$var wire 1 = s $end
$var wire 4 H Out [3:0] $end
$upscope $end
$scope module mux_op1_A $end
$var wire 4 I A [3:0] $end
$var wire 4 J B [3:0] $end
$var wire 1 5 s $end
$var wire 4 K Out [3:0] $end
$upscope $end
$scope module mux_op2_B $end
$var wire 4 L A [3:0] $end
$var wire 4 M B [3:0] $end
$var wire 1 6 s $end
$var wire 4 N Out [3:0] $end
$upscope $end
$scope module signals_alu $end
$var wire 4 O R [3:0] $end
$var wire 1 P and1_cout_out $end
$var wire 1 Q and1_sign_out $end
$var wire 1 R and2_cout_out $end
$var wire 1 S and2_sign_out $end
$var wire 1 # c_out $end
$var wire 1 . l $end
$var wire 1 T not_cout $end
$var wire 1 U or_1 $end
$var wire 1 " sign $end
$var wire 1 ! zero $end
$var wire 1 : carry_sum $end
$upscope $end
$scope module sum $end
$var wire 4 V A [3:0] $end
$var wire 4 W B [3:0] $end
$var wire 1 - c_in $end
$var wire 1 : c_out $end
$var wire 4 X S [3:0] $end
$upscope $end
$scope module ul $end
$var wire 4 Y A [3:0] $end
$var wire 4 Z B [3:0] $end
$var wire 2 [ S [1:0] $end
$var wire 4 \ Out [3:0] $end
$scope module cl0 $end
$var wire 2 ] S [1:0] $end
$var wire 1 ^ a $end
$var wire 1 _ and_o $end
$var wire 1 ` b $end
$var wire 1 a not_o $end
$var wire 1 b or_o $end
$var wire 1 c xor_o $end
$var wire 1 d out $end
$scope module mux_cl $end
$var wire 2 e S [1:0] $end
$var wire 1 _ a $end
$var wire 1 b b $end
$var wire 1 c c $end
$var wire 1 a d $end
$var reg 1 d out $end
$upscope $end
$upscope $end
$scope module cl1 $end
$var wire 2 f S [1:0] $end
$var wire 1 g a $end
$var wire 1 h and_o $end
$var wire 1 i b $end
$var wire 1 j not_o $end
$var wire 1 k or_o $end
$var wire 1 l xor_o $end
$var wire 1 m out $end
$scope module mux_cl $end
$var wire 2 n S [1:0] $end
$var wire 1 h a $end
$var wire 1 k b $end
$var wire 1 l c $end
$var wire 1 j d $end
$var reg 1 m out $end
$upscope $end
$upscope $end
$scope module cl2 $end
$var wire 2 o S [1:0] $end
$var wire 1 p a $end
$var wire 1 q and_o $end
$var wire 1 r b $end
$var wire 1 s not_o $end
$var wire 1 t or_o $end
$var wire 1 u xor_o $end
$var wire 1 v out $end
$scope module mux_cl $end
$var wire 2 w S [1:0] $end
$var wire 1 q a $end
$var wire 1 t b $end
$var wire 1 u c $end
$var wire 1 s d $end
$var reg 1 v out $end
$upscope $end
$upscope $end
$scope module cl3 $end
$var wire 2 x S [1:0] $end
$var wire 1 y a $end
$var wire 1 z and_o $end
$var wire 1 { b $end
$var wire 1 | not_o $end
$var wire 1 } or_o $end
$var wire 1 ~ xor_o $end
$var wire 1 !" out $end
$scope module mux_cl $end
$var wire 2 "" S [1:0] $end
$var wire 1 z a $end
$var wire 1 } b $end
$var wire 1 ~ c $end
$var wire 1 | d $end
$var reg 1 !" out $end
$upscope $end
$upscope $end
$upscope $end
$upscope $end
$scope task check $end
$var reg 5 #" expected_R [4:0] $end
$var reg 1 $" expected_c $end
$var reg 1 %" expected_s $end
$var reg 1 &" expected_z $end
$upscope $end
$upscope $end
$scope module sum4 $end
$var wire 4 '" A [3:0] $end
$var wire 4 (" B [3:0] $end
$var wire 1 )" c_in $end
$var wire 1 *" c_out $end
$var wire 1 +" c3 $end
$var wire 1 ," c2 $end
$var wire 1 -" c1 $end
$var wire 4 ." S [3:0] $end
$scope module fa0 $end
$var wire 1 /" a $end
$var wire 1 0" b $end
$var wire 1 )" c_in $end
$var wire 1 -" sum $end
$var wire 1 1" c_out $end
$upscope $end
$scope module fa1 $end
$var wire 1 2" a $end
$var wire 1 3" b $end
$var wire 1 -" c_in $end
$var wire 1 ," sum $end
$var wire 1 4" c_out $end
$upscope $end
$scope module fa2 $end
$var wire 1 5" a $end
$var wire 1 6" b $end
$var wire 1 ," c_in $end
$var wire 1 +" sum $end
$var wire 1 7" c_out $end
$upscope $end
$scope module fa3 $end
$var wire 1 8" a $end
$var wire 1 9" b $end
$var wire 1 +" c_in $end
$var wire 1 *" sum $end
$var wire 1 :" c_out $end
$upscope $end
$upscope $end
$enddefinitions $end
#0
$dumpvars
x:"
z9"
z8"
x7"
z6"
z5"
x4"
z3"
z2"
x1"
z0"
z/"
bx ."
x-"
x,"
x+"
x*"
z)"
bz ("
bz '"
x&"
x%"
x$"
bx #"
b0 ""
0!"
0~
0}
1|
0{
0z
0y
b0 x
b0 w
0v
0u
0t
1s
0r
0q
0p
b0 o
b0 n
0m
0l
0k
1j
0i
0h
0g
b0 f
b0 e
0d
0c
0b
1a
0`
0_
0^
b0 ]
b0 \
b0 [
b0 Z
b0 Y
b0 X
b0 W
b0 V
0U
1T
0S
0R
0Q
0P
b0 O
b0 N
b0 M
b0 L
b0 K
b0 J
b0 I
b0 H
b1 G
b0 F
b0 E
b0 D
b0 C
b0 B
b0 A
b0 @
b0 ?
b0 >
0=
b0 <
b0 ;
0:
b0 9
b0 8
b1 7
06
05
04
b0 3
b0 2
b0 1
b0 0
b0 /
0.
0-
b0 ,
b0 +
b0 *
x)
x(
x'
x&
x%
b0 $
0#
0"
1!
$end
#1
0%
0)
0&
1&"
0'
0(
0%"
0$"
b0 #"
#1000
b1 +
b1 2
b1 M
#2000
b10 +
b10 2
b10 M
#3000
b11 +
b11 2
b11 M
#4000
b100 +
b100 2
b100 M
#5000
b101 +
b101 2
b101 M
#6000
b110 +
b110 2
b110 M
#7000
b111 +
b111 2
b111 M
#8000
b1000 +
b1000 2
b1000 M
#9000
b1001 +
b1001 2
b1001 M
#10000
b1010 +
b1010 2
b1010 M
#11000
b1011 +
b1011 2
b1011 M
#12000
b1100 +
b1100 2
b1100 M
#13000
b1101 +
b1101 2
b1101 M
#14000
b1110 +
b1110 2
b1110 M
#15000
b1111 +
b1111 2
b1111 M
#16000
0!
1U
b1 $
b1 >
b1 C
b1 O
1b
1c
b1 9
b1 E
b1 X
1`
b1 ?
b1 A
b1 W
b1 Z
b1 ;
b1 B
b1 N
b1 *
b1 0
b1 J
b1 L
b0 +
b0 2
b0 M
#16001
0&"
b1 #"
#17000
b1 +
b1 2
b1 M
#18000
b10 +
b10 2
b10 M
#19000
b11 +
b11 2
b11 M
#20000
b100 +
b100 2
b100 M
#21000
b101 +
b101 2
b101 M
#22000
b110 +
b110 2
b110 M
#23000
b111 +
b111 2
b111 M
#24000
b1000 +
b1000 2
b1000 M
#25000
b1001 +
b1001 2
b1001 M
#26000
b1010 +
b1010 2
b1010 M
#27000
b1011 +
b1011 2
b1011 M
#28000
b1100 +
b1100 2
b1100 M
#29000
b1101 +
b1101 2
b1101 M
#30000
b1110 +
b1110 2
b1110 M
#31000
b1111 +
b1111 2
b1111 M
#32000
b10 $
b10 >
b10 C
b10 O
0b
0c
1k
1l
b10 9
b10 E
b10 X
0`
1i
b10 ?
b10 A
b10 W
b10 Z
b10 ;
b10 B
b10 N
b10 *
b10 0
b10 J
b10 L
b0 +
b0 2
b0 M
#32001
b10 #"
#33000
b1 +
b1 2
b1 M
#34000
b10 +
b10 2
b10 M
#35000
b11 +
b11 2
b11 M
#36000
b100 +
b100 2
b100 M
#37000
b101 +
b101 2
b101 M
#38000
b110 +
b110 2
b110 M
#39000
b111 +
b111 2
b111 M
#40000
b1000 +
b1000 2
b1000 M
#41000
b1001 +
b1001 2
b1001 M
#42000
b1010 +
b1010 2
b1010 M
#43000
b1011 +
b1011 2
b1011 M
#44000
b1100 +
b1100 2
b1100 M
#45000
b1101 +
b1101 2
b1101 M
#46000
b1110 +
b1110 2
b1110 M
#47000
b1111 +
b1111 2
b1111 M
#48000
b11 $
b11 >
b11 C
b11 O
1b
1c
b11 9
b11 E
b11 X
1`
b11 ?
b11 A
b11 W
b11 Z
b11 ;
b11 B
b11 N
b11 *
b11 0
b11 J
b11 L
b0 +
b0 2
b0 M
#48001
b11 #"
#49000
b1 +
b1 2
b1 M
#50000
b10 +
b10 2
b10 M
#51000
b11 +
b11 2
b11 M
#52000
b100 +
b100 2
b100 M
#53000
b101 +
b101 2
b101 M
#54000
b110 +
b110 2
b110 M
#55000
b111 +
b111 2
b111 M
#56000
b1000 +
b1000 2
b1000 M
#57000
b1001 +
b1001 2
b1001 M
#58000
b1010 +
b1010 2
b1010 M
#59000
b1011 +
b1011 2
b1011 M
#60000
b1100 +
b1100 2
b1100 M
#61000
b1101 +
b1101 2
b1101 M
#62000
b1110 +
b1110 2
b1110 M
#63000
b1111 +
b1111 2
b1111 M
#64000
b100 $
b100 >
b100 C
b100 O
0b
0c
0k
0l
1t
1u
b100 9
b100 E
b100 X
0`
0i
1r
b100 ?
b100 A
b100 W
b100 Z
b100 ;
b100 B
b100 N
b100 *
b100 0
b100 J
b100 L
b0 +
b0 2
b0 M
#64001
b100 #"
#65000
b1 +
b1 2
b1 M
#66000
b10 +
b10 2
b10 M
#67000
b11 +
b11 2
b11 M
#68000
b100 +
b100 2
b100 M
#69000
b101 +
b101 2
b101 M
#70000
b110 +
b110 2
b110 M
#71000
b111 +
b111 2
b111 M
#72000
b1000 +
b1000 2
b1000 M
#73000
b1001 +
b1001 2
b1001 M
#74000
b1010 +
b1010 2
b1010 M
#75000
b1011 +
b1011 2
b1011 M
#76000
b1100 +
b1100 2
b1100 M
#77000
b1101 +
b1101 2
b1101 M
#78000
b1110 +
b1110 2
b1110 M
#79000
b1111 +
b1111 2
b1111 M
#80000
b101 $
b101 >
b101 C
b101 O
1b
1c
b101 9
b101 E
b101 X
1`
b101 ?
b101 A
b101 W
b101 Z
b101 ;
b101 B
b101 N
b101 *
b101 0
b101 J
b101 L
b0 +
b0 2
b0 M
#80001
b101 #"
#81000
b1 +
b1 2
b1 M
#82000
b10 +
b10 2
b10 M
#83000
b11 +
b11 2
b11 M
#84000
b100 +
b100 2
b100 M
#85000
b101 +
b101 2
b101 M
#86000
b110 +
b110 2
b110 M
#87000
b111 +
b111 2
b111 M
#88000
b1000 +
b1000 2
b1000 M
#89000
b1001 +
b1001 2
b1001 M
#90000
b1010 +
b1010 2
b1010 M
#91000
b1011 +
b1011 2
b1011 M
#92000
b1100 +
b1100 2
b1100 M
#93000
b1101 +
b1101 2
b1101 M
#94000
b1110 +
b1110 2
b1110 M
#95000
b1111 +
b1111 2
b1111 M
#96000
b110 $
b110 >
b110 C
b110 O
0b
0c
1k
1l
b110 9
b110 E
b110 X
0`
1i
b110 ?
b110 A
b110 W
b110 Z
b110 ;
b110 B
b110 N
b110 *
b110 0
b110 J
b110 L
b0 +
b0 2
b0 M
#96001
b110 #"
#97000
b1 +
b1 2
b1 M
#98000
b10 +
b10 2
b10 M
#99000
b11 +
b11 2
b11 M
#100000
b100 +
b100 2
b100 M
#101000
b101 +
b101 2
b101 M
#102000
b110 +
b110 2
b110 M
#103000
b111 +
b111 2
b111 M
#104000
b1000 +
b1000 2
b1000 M
#105000
b1001 +
b1001 2
b1001 M
#106000
b1010 +
b1010 2
b1010 M
#107000
b1011 +
b1011 2
b1011 M
#108000
b1100 +
b1100 2
b1100 M
#109000
b1101 +
b1101 2
b1101 M
#110000
b1110 +
b1110 2
b1110 M
#111000
b1111 +
b1111 2
b1111 M
#112000
b111 $
b111 >
b111 C
b111 O
1b
1c
b111 9
b111 E
b111 X
1`
b111 ?
b111 A
b111 W
b111 Z
b111 ;
b111 B
b111 N
b111 *
b111 0
b111 J
b111 L
b0 +
b0 2
b0 M
#112001
b111 #"
#113000
b1 +
b1 2
b1 M
#114000
b10 +
b10 2
b10 M
#115000
b11 +
b11 2
b11 M
#116000
b100 +
b100 2
b100 M
#117000
b101 +
b101 2
b101 M
#118000
b110 +
b110 2
b110 M
#119000
b111 +
b111 2
b111 M
#120000
b1000 +
b1000 2
b1000 M
#121000
b1001 +
b1001 2
b1001 M
#122000
b1010 +
b1010 2
b1010 M
#123000
b1011 +
b1011 2
b1011 M
#124000
b1100 +
b1100 2
b1100 M
#125000
b1101 +
b1101 2
b1101 M
#126000
b1110 +
b1110 2
b1110 M
#127000
b1111 +
b1111 2
b1111 M
#128000
1"
1Q
1S
b1000 $
b1000 >
b1000 C
b1000 O
0b
0c
0k
0l
0t
0u
1}
1~
b1000 9
b1000 E
b1000 X
0`
0i
0r
1{
b1000 ?
b1000 A
b1000 W
b1000 Z
b1000 ;
b1000 B
b1000 N
b1000 *
b1000 0
b1000 J
b1000 L
b0 +
b0 2
b0 M
#128001
1%"
b1000 #"
#129000
b1 +
b1 2
b1 M
#130000
b10 +
b10 2
b10 M
#131000
b11 +
b11 2
b11 M
#132000
b100 +
b100 2
b100 M
#133000
b101 +
b101 2
b101 M
#134000
b110 +
b110 2
b110 M
#135000
b111 +
b111 2
b111 M
#136000
b1000 +
b1000 2
b1000 M
#137000
b1001 +
b1001 2
b1001 M
#138000
b1010 +
b1010 2
b1010 M
#139000
b1011 +
b1011 2
b1011 M
#140000
b1100 +
b1100 2
b1100 M
#141000
b1101 +
b1101 2
b1101 M
#142000
b1110 +
b1110 2
b1110 M
#143000
b1111 +
b1111 2
b1111 M
#144000
b1001 $
b1001 >
b1001 C
b1001 O
1b
1c
b1001 9
b1001 E
b1001 X
1`
b1001 ?
b1001 A
b1001 W
b1001 Z
b1001 ;
b1001 B
b1001 N
b1001 *
b1001 0
b1001 J
b1001 L
b0 +
b0 2
b0 M
#144001
b1001 #"
#145000
b1 +
b1 2
b1 M
#146000
b10 +
b10 2
b10 M
#147000
b11 +
b11 2
b11 M
#148000
b100 +
b100 2
b100 M
#149000
b101 +
b101 2
b101 M
#150000
b110 +
b110 2
b110 M
#151000
b111 +
b111 2
b111 M
#152000
b1000 +
b1000 2
b1000 M
#153000
b1001 +
b1001 2
b1001 M
#154000
b1010 +
b1010 2
b1010 M
#155000
b1011 +
b1011 2
b1011 M
#156000
b1100 +
b1100 2
b1100 M
#157000
b1101 +
b1101 2
b1101 M
#158000
b1110 +
b1110 2
b1110 M
#159000
b1111 +
b1111 2
b1111 M
#160000
b1010 $
b1010 >
b1010 C
b1010 O
0b
0c
1k
1l
b1010 9
b1010 E
b1010 X
0`
1i
b1010 ?
b1010 A
b1010 W
b1010 Z
b1010 ;
b1010 B
b1010 N
b1010 *
b1010 0
b1010 J
b1010 L
b0 +
b0 2
b0 M
#160001
b1010 #"
#161000
b1 +
b1 2
b1 M
#162000
b10 +
b10 2
b10 M
#163000
b11 +
b11 2
b11 M
#164000
b100 +
b100 2
b100 M
#165000
b101 +
b101 2
b101 M
#166000
b110 +
b110 2
b110 M
#167000
b111 +
b111 2
b111 M
#168000
b1000 +
b1000 2
b1000 M
#169000
b1001 +
b1001 2
b1001 M
#170000
b1010 +
b1010 2
b1010 M
#171000
b1011 +
b1011 2
b1011 M
#172000
b1100 +
b1100 2
b1100 M
#173000
b1101 +
b1101 2
b1101 M
#174000
b1110 +
b1110 2
b1110 M
#175000
b1111 +
b1111 2
b1111 M
#176000
b1011 $
b1011 >
b1011 C
b1011 O
1b
1c
b1011 9
b1011 E
b1011 X
1`
b1011 ?
b1011 A
b1011 W
b1011 Z
b1011 ;
b1011 B
b1011 N
b1011 *
b1011 0
b1011 J
b1011 L
b0 +
b0 2
b0 M
#176001
b1011 #"
#177000
b1 +
b1 2
b1 M
#178000
b10 +
b10 2
b10 M
#179000
b11 +
b11 2
b11 M
#180000
b100 +
b100 2
b100 M
#181000
b101 +
b101 2
b101 M
#182000
b110 +
b110 2
b110 M
#183000
b111 +
b111 2
b111 M
#184000
b1000 +
b1000 2
b1000 M
#185000
b1001 +
b1001 2
b1001 M
#186000
b1010 +
b1010 2
b1010 M
#187000
b1011 +
b1011 2
b1011 M
#188000
b1100 +
b1100 2
b1100 M
#189000
b1101 +
b1101 2
b1101 M
#190000
b1110 +
b1110 2
b1110 M
#191000
b1111 +
b1111 2
b1111 M
#192000
b1100 $
b1100 >
b1100 C
b1100 O
0b
0c
0k
0l
1t
1u
b1100 9
b1100 E
b1100 X
0`
0i
1r
b1100 ?
b1100 A
b1100 W
b1100 Z
b1100 ;
b1100 B
b1100 N
b1100 *
b1100 0
b1100 J
b1100 L
b0 +
b0 2
b0 M
#192001
b1100 #"
#193000
b1 +
b1 2
b1 M
#194000
b10 +
b10 2
b10 M
#195000
b11 +
b11 2
b11 M
#196000
b100 +
b100 2
b100 M
#197000
b101 +
b101 2
b101 M
#198000
b110 +
b110 2
b110 M
#199000
b111 +
b111 2
b111 M
#200000
b1000 +
b1000 2
b1000 M
#201000
b1001 +
b1001 2
b1001 M
#202000
b1010 +
b1010 2
b1010 M
#203000
b1011 +
b1011 2
b1011 M
#204000
b1100 +
b1100 2
b1100 M
#205000
b1101 +
b1101 2
b1101 M
#206000
b1110 +
b1110 2
b1110 M
#207000
b1111 +
b1111 2
b1111 M
#208000
b1101 $
b1101 >
b1101 C
b1101 O
1b
1c
b1101 9
b1101 E
b1101 X
1`
b1101 ?
b1101 A
b1101 W
b1101 Z
b1101 ;
b1101 B
b1101 N
b1101 *
b1101 0
b1101 J
b1101 L
b0 +
b0 2
b0 M
#208001
b1101 #"
#209000
b1 +
b1 2
b1 M
#210000
b10 +
b10 2
b10 M
#211000
b11 +
b11 2
b11 M
#212000
b100 +
b100 2
b100 M
#213000
b101 +
b101 2
b101 M
#214000
b110 +
b110 2
b110 M
#215000
b111 +
b111 2
b111 M
#216000
b1000 +
b1000 2
b1000 M
#217000
b1001 +
b1001 2
b1001 M
#218000
b1010 +
b1010 2
b1010 M
#219000
b1011 +
b1011 2
b1011 M
#220000
b1100 +
b1100 2
b1100 M
#221000
b1101 +
b1101 2
b1101 M
#222000
b1110 +
b1110 2
b1110 M
#223000
b1111 +
b1111 2
b1111 M
#224000
b1110 $
b1110 >
b1110 C
b1110 O
0b
0c
1k
1l
b1110 9
b1110 E
b1110 X
0`
1i
b1110 ?
b1110 A
b1110 W
b1110 Z
b1110 ;
b1110 B
b1110 N
b1110 *
b1110 0
b1110 J
b1110 L
b0 +
b0 2
b0 M
#224001
b1110 #"
#225000
b1 +
b1 2
b1 M
#226000
b10 +
b10 2
b10 M
#227000
b11 +
b11 2
b11 M
#228000
b100 +
b100 2
b100 M
#229000
b101 +
b101 2
b101 M
#230000
b110 +
b110 2
b110 M
#231000
b111 +
b111 2
b111 M
#232000
b1000 +
b1000 2
b1000 M
#233000
b1001 +
b1001 2
b1001 M
#234000
b1010 +
b1010 2
b1010 M
#235000
b1011 +
b1011 2
b1011 M
#236000
b1100 +
b1100 2
b1100 M
#237000
b1101 +
b1101 2
b1101 M
#238000
b1110 +
b1110 2
b1110 M
#239000
b1111 +
b1111 2
b1111 M
#240000
b1111 $
b1111 >
b1111 C
b1111 O
1b
1c
b1111 9
b1111 E
b1111 X
1`
b1111 ?
b1111 A
b1111 W
b1111 Z
b1111 ;
b1111 B
b1111 N
b1111 *
b1111 0
b1111 J
b1111 L
b0 +
b0 2
b0 M
#240001
b1111 #"
#241000
b1 +
b1 2
b1 M
#242000
b10 +
b10 2
b10 M
#243000
b11 +
b11 2
b11 M
#244000
b100 +
b100 2
b100 M
#245000
b101 +
b101 2
b101 M
#246000
b110 +
b110 2
b110 M
#247000
b111 +
b111 2
b111 M
#248000
b1000 +
b1000 2
b1000 M
#249000
b1001 +
b1001 2
b1001 M
#250000
b1010 +
b1010 2
b1010 M
#251000
b1011 +
b1011 2
b1011 M
#252000
b1100 +
b1100 2
b1100 M
#253000
b1101 +
b1101 2
b1101 M
#254000
b1110 +
b1110 2
b1110 M
#255000
b1111 +
b1111 2
b1111 M
#256000
0!
0"
1U
0Q
0S
0b
0c
0k
0l
0t
0u
0}
0~
0#
0`
0i
0r
0{
b1 $
b1 >
b1 C
b1 O
0P
b0 ?
b0 A
b0 W
b0 Z
b1 9
b1 E
b1 X
0:
b0 ;
b0 B
b0 N
1-
b0 *
b0 0
b0 J
b0 L
b0 +
b0 2
b0 M
#256001
0%"
b1 #"
#257000
b1 +
b1 2
b1 M
#258000
b10 +
b10 2
b10 M
#259000
b11 +
b11 2
b11 M
#260000
b100 +
b100 2
b100 M
#261000
b101 +
b101 2
b101 M
#262000
b110 +
b110 2
b110 M
#263000
b111 +
b111 2
b111 M
#264000
b1000 +
b1000 2
b1000 M
#265000
b1001 +
b1001 2
b1001 M
#266000
b1010 +
b1010 2
b1010 M
#267000
b1011 +
b1011 2
b1011 M
#268000
b1100 +
b1100 2
b1100 M
#269000
b1101 +
b1101 2
b1101 M
#270000
b1110 +
b1110 2
b1110 M
#271000
b1111 +
b1111 2
b1111 M
#272000
b10 $
b10 >
b10 C
b10 O
1b
1c
b10 9
b10 E
b10 X
1`
b1 ?
b1 A
b1 W
b1 Z
b1 ;
b1 B
b1 N
b1 *
b1 0
b1 J
b1 L
b0 +
b0 2
b0 M
#272001
b10 #"
#273000
b1 +
b1 2
b1 M
#274000
b10 +
b10 2
b10 M
#275000
b11 +
b11 2
b11 M
#276000
b100 +
b100 2
b100 M
#277000
b101 +
b101 2
b101 M
#278000
b110 +
b110 2
b110 M
#279000
b111 +
b111 2
b111 M
#280000
b1000 +
b1000 2
b1000 M
#281000
b1001 +
b1001 2
b1001 M
#282000
b1010 +
b1010 2
b1010 M
#283000
b1011 +
b1011 2
b1011 M
#284000
b1100 +
b1100 2
b1100 M
#285000
b1101 +
b1101 2
b1101 M
#286000
b1110 +
b1110 2
b1110 M
#287000
b1111 +
b1111 2
b1111 M
#288000
b11 $
b11 >
b11 C
b11 O
0b
0c
1k
1l
b11 9
b11 E
b11 X
0`
1i
b10 ?
b10 A
b10 W
b10 Z
b10 ;
b10 B
b10 N
b10 *
b10 0
b10 J
b10 L
b0 +
b0 2
b0 M
#288001
b11 #"
#289000
b1 +
b1 2
b1 M
#290000
b10 +
b10 2
b10 M
#291000
b11 +
b11 2
b11 M
#292000
b100 +
b100 2
b100 M
#293000
b101 +
b101 2
b101 M
#294000
b110 +
b110 2
b110 M
#295000
b111 +
b111 2
b111 M
#296000
b1000 +
b1000 2
b1000 M
#297000
b1001 +
b1001 2
b1001 M
#298000
b1010 +
b1010 2
b1010 M
#299000
b1011 +
b1011 2
b1011 M
#300000
b1100 +
b1100 2
b1100 M
#301000
b1101 +
b1101 2
b1101 M
#302000
b1110 +
b1110 2
b1110 M
#303000
b1111 +
b1111 2
b1111 M
#304000
b100 $
b100 >
b100 C
b100 O
1b
1c
b100 9
b100 E
b100 X
1`
b11 ?
b11 A
b11 W
b11 Z
b11 ;
b11 B
b11 N
b11 *
b11 0
b11 J
b11 L
b0 +
b0 2
b0 M
#304001
b100 #"
#305000
b1 +
b1 2
b1 M
#306000
b10 +
b10 2
b10 M
#307000
b11 +
b11 2
b11 M
#308000
b100 +
b100 2
b100 M
#309000
b101 +
b101 2
b101 M
#310000
b110 +
b110 2
b110 M
#311000
b111 +
b111 2
b111 M
#312000
b1000 +
b1000 2
b1000 M
#313000
b1001 +
b1001 2
b1001 M
#314000
b1010 +
b1010 2
b1010 M
#315000
b1011 +
b1011 2
b1011 M
#316000
b1100 +
b1100 2
b1100 M
#317000
b1101 +
b1101 2
b1101 M
#318000
b1110 +
b1110 2
b1110 M
#319000
b1111 +
b1111 2
b1111 M
#320000
b101 $
b101 >
b101 C
b101 O
0b
0c
0k
0l
1t
1u
b101 9
b101 E
b101 X
0`
0i
1r
b100 ?
b100 A
b100 W
b100 Z
b100 ;
b100 B
b100 N
b100 *
b100 0
b100 J
b100 L
b0 +
b0 2
b0 M
#320001
b101 #"
#321000
b1 +
b1 2
b1 M
#322000
b10 +
b10 2
b10 M
#323000
b11 +
b11 2
b11 M
#324000
b100 +
b100 2
b100 M
#325000
b101 +
b101 2
b101 M
#326000
b110 +
b110 2
b110 M
#327000
b111 +
b111 2
b111 M
#328000
b1000 +
b1000 2
b1000 M
#329000
b1001 +
b1001 2
b1001 M
#330000
b1010 +
b1010 2
b1010 M
#331000
b1011 +
b1011 2
b1011 M
#332000
b1100 +
b1100 2
b1100 M
#333000
b1101 +
b1101 2
b1101 M
#334000
b1110 +
b1110 2
b1110 M
#335000
b1111 +
b1111 2
b1111 M
#336000
b110 $
b110 >
b110 C
b110 O
1b
1c
b110 9
b110 E
b110 X
1`
b101 ?
b101 A
b101 W
b101 Z
b101 ;
b101 B
b101 N
b101 *
b101 0
b101 J
b101 L
b0 +
b0 2
b0 M
#336001
b110 #"
#337000
b1 +
b1 2
b1 M
#338000
b10 +
b10 2
b10 M
#339000
b11 +
b11 2
b11 M
#340000
b100 +
b100 2
b100 M
#341000
b101 +
b101 2
b101 M
#342000
b110 +
b110 2
b110 M
#343000
b111 +
b111 2
b111 M
#344000
b1000 +
b1000 2
b1000 M
#345000
b1001 +
b1001 2
b1001 M
#346000
b1010 +
b1010 2
b1010 M
#347000
b1011 +
b1011 2
b1011 M
#348000
b1100 +
b1100 2
b1100 M
#349000
b1101 +
b1101 2
b1101 M
#350000
b1110 +
b1110 2
b1110 M
#351000
b1111 +
b1111 2
b1111 M
#352000
b111 $
b111 >
b111 C
b111 O
0b
0c
1k
1l
b111 9
b111 E
b111 X
0`
1i
b110 ?
b110 A
b110 W
b110 Z
b110 ;
b110 B
b110 N
b110 *
b110 0
b110 J
b110 L
b0 +
b0 2
b0 M
#352001
b111 #"
#353000
b1 +
b1 2
b1 M
#354000
b10 +
b10 2
b10 M
#355000
b11 +
b11 2
b11 M
#356000
b100 +
b100 2
b100 M
#357000
b101 +
b101 2
b101 M
#358000
b110 +
b110 2
b110 M
#359000
b111 +
b111 2
b111 M
#360000
b1000 +
b1000 2
b1000 M
#361000
b1001 +
b1001 2
b1001 M
#362000
b1010 +
b1010 2
b1010 M
#363000
b1011 +
b1011 2
b1011 M
#364000
b1100 +
b1100 2
b1100 M
#365000
b1101 +
b1101 2
b1101 M
#366000
b1110 +
b1110 2
b1110 M
#367000
b1111 +
b1111 2
b1111 M
#368000
1"
1Q
1S
b1000 $
b1000 >
b1000 C
b1000 O
1b
1c
b1000 9
b1000 E
b1000 X
1`
b111 ?
b111 A
b111 W
b111 Z
b111 ;
b111 B
b111 N
b111 *
b111 0
b111 J
b111 L
b0 +
b0 2
b0 M
#368001
1%"
b1000 #"
#369000
b1 +
b1 2
b1 M
#370000
b10 +
b10 2
b10 M
#371000
b11 +
b11 2
b11 M
#372000
b100 +
b100 2
b100 M
#373000
b101 +
b101 2
b101 M
#374000
b110 +
b110 2
b110 M
#375000
b111 +
b111 2
b111 M
#376000
b1000 +
b1000 2
b1000 M
#377000
b1001 +
b1001 2
b1001 M
#378000
b1010 +
b1010 2
b1010 M
#379000
b1011 +
b1011 2
b1011 M
#380000
b1100 +
b1100 2
b1100 M
#381000
b1101 +
b1101 2
b1101 M
#382000
b1110 +
b1110 2
b1110 M
#383000
b1111 +
b1111 2
b1111 M
#384000
b1001 $
b1001 >
b1001 C
b1001 O
0b
0c
0k
0l
0t
0u
1}
1~
b1001 9
b1001 E
b1001 X
0`
0i
0r
1{
b1000 ?
b1000 A
b1000 W
b1000 Z
b1000 ;
b1000 B
b1000 N
b1000 *
b1000 0
b1000 J
b1000 L
b0 +
b0 2
b0 M
#384001
b1001 #"
#385000
b1 +
b1 2
b1 M
#386000
b10 +
b10 2
b10 M
#387000
b11 +
b11 2
b11 M
#388000
b100 +
b100 2
b100 M
#389000
b101 +
b101 2
b101 M
#390000
b110 +
b110 2
b110 M
#391000
b111 +
b111 2
b111 M
#392000
b1000 +
b1000 2
b1000 M
#393000
b1001 +
b1001 2
b1001 M
#394000
b1010 +
b1010 2
b1010 M
#395000
b1011 +
b1011 2
b1011 M
#396000
b1100 +
b1100 2
b1100 M
#397000
b1101 +
b1101 2
b1101 M
#398000
b1110 +
b1110 2
b1110 M
#399000
b1111 +
b1111 2
b1111 M
