Practica01/practica01/alu.vcd
$date
	Wed Oct 25 11:37:13 2023
$end
$version
	Icarus Verilog
$end
$timescale
	10ps
$end
$scope module alu_tb $end
$var wire 1 ! t_z $end
$var wire 1 " t_s $end
$var wire 1 # t_c $end
$var wire 4 $ t_R [3:0] $end
$var reg 1 % error $end
$var reg 1 & error_R $end
$var reg 1 ' error_c $end
$var reg 1 ( error_s $end
$var reg 1 ) error_z $end
$var reg 4 * t_A [3:0] $end
$var reg 4 + t_B [3:0] $end
$var reg 2 , t_Op [1:0] $end
$var reg 1 - t_cin $end
$var reg 1 . t_l $end
$var integer 32 / errores [31:0] $end
$scope module mat $end
$var wire 4 0 A [3:0] $end
$var wire 2 1 ALUOP [1:0] $end
$var wire 4 2 B [3:0] $end
$var wire 1 - c_in $end
$var wire 4 3 cero [3:0] $end
$var wire 1 4 cpl $end
$var wire 1 . l $end
$var wire 1 5 op1_A $end
$var wire 1 6 op2_B $end
$var wire 4 7 uno [3:0] $end
$var wire 1 ! zero $end
$var wire 4 8 ul_out [3:0] $end
$var wire 4 9 sum_out [3:0] $end
$var wire 1 " sign $end
$var wire 4 : mux_op2_B_out [3:0] $end
$var wire 4 ; mux_add1_out [3:0] $end
$var wire 1 # c_out $end
$var wire 1 < add1 $end
$var wire 4 = R [3:0] $end
$var wire 4 > OP2 [3:0] $end
$var wire 4 ? OP1 [3:0] $end
$scope module cpl1 $end
$var wire 1 4 cpl $end
$var wire 4 @ Out [3:0] $end
$var wire 4 A Inp [3:0] $end
$upscope $end
$scope module mux_R $end
$var wire 1 . s $end
$var wire 4 B Out [3:0] $end
$var wire 4 C B [3:0] $end
$var wire 4 D A [3:0] $end
$upscope $end
$scope module mux_add1 $end
$var wire 4 E A [3:0] $end
$var wire 4 F B [3:0] $end
$var wire 1 < s $end
$var wire 4 G Out [3:0] $end
$upscope $end
$scope module mux_op1_A $end
$var wire 4 H A [3:0] $end
$var wire 4 I B [3:0] $end
$var wire 1 5 s $end
$var wire 4 J Out [3:0] $end
$upscope $end
$scope module mux_op2_B $end
$var wire 4 K A [3:0] $end
$var wire 4 L B [3:0] $end
$var wire 1 6 s $end
$var wire 4 M Out [3:0] $end
$upscope $end
$scope module sum $end
$var wire 4 N A [3:0] $end
$var wire 4 O B [3:0] $end
$var wire 1 - c_in $end
$var wire 1 # c_out $end
$var wire 4 P S [3:0] $end
$upscope $end
$scope module ul $end
$var wire 4 Q A [3:0] $end
$var wire 4 R B [3:0] $end
$var wire 2 S S [1:0] $end
$var wire 4 T Out [3:0] $end
$scope module cl0 $end
$var wire 2 U S [1:0] $end
$var wire 1 V a $end
$var wire 1 W and_o $end
$var wire 1 X b $end
$var wire 1 Y not_o $end
$var wire 1 Z or_o $end
$var wire 1 [ xor_o $end
$var wire 1 \ out $end
$scope module mux_cl $end
$var wire 2 ] S [1:0] $end
$var wire 1 W a $end
$var wire 1 Z b $end
$var wire 1 [ c $end
$var wire 1 Y d $end
$var reg 1 \ out $end
$upscope $end
$upscope $end
$scope module cl1 $end
$var wire 2 ^ S [1:0] $end
$var wire 1 _ a $end
$var wire 1 ` and_o $end
$var wire 1 a b $end
$var wire 1 b not_o $end
$var wire 1 c or_o $end
$var wire 1 d xor_o $end
$var wire 1 e out $end
$scope module mux_cl $end
$var wire 2 f S [1:0] $end
$var wire 1 ` a $end
$var wire 1 c b $end
$var wire 1 d c $end
$var wire 1 b d $end
$var reg 1 e out $end
$upscope $end
$upscope $end
$scope module cl2 $end
$var wire 2 g S [1:0] $end
$var wire 1 h a $end
$var wire 1 i and_o $end
$var wire 1 j b $end
$var wire 1 k not_o $end
$var wire 1 l or_o $end
$var wire 1 m xor_o $end
$var wire 1 n out $end
$scope module mux_cl $end
$var wire 2 o S [1:0] $end
$var wire 1 i a $end
$var wire 1 l b $end
$var wire 1 m c $end
$var wire 1 k d $end
$var reg 1 n out $end
$upscope $end
$upscope $end
$scope module cl3 $end
$var wire 2 p S [1:0] $end
$var wire 1 q a $end
$var wire 1 r and_o $end
$var wire 1 s b $end
$var wire 1 t not_o $end
$var wire 1 u or_o $end
$var wire 1 v xor_o $end
$var wire 1 w out $end
$scope module mux_cl $end
$var wire 2 x S [1:0] $end
$var wire 1 r a $end
$var wire 1 u b $end
$var wire 1 v c $end
$var wire 1 t d $end
$var reg 1 w out $end
$upscope $end
$upscope $end
$upscope $end
$upscope $end
$scope task check $end
$var reg 5 y expected_R [4:0] $end
$var reg 1 z expected_c $end
$var reg 1 { expected_s $end
$var reg 1 | expected_z $end
$upscope $end
$upscope $end
$enddefinitions $end
#0
$dumpvars
x|
x{
xz
bx y
b0 x
0w
0v
0u
1t
0s
0r
0q
b0 p
b0 o
0n
0m
0l
1k
0j
0i
0h
b0 g
b0 f
0e
0d
0c
1b
0a
0`
0_
b0 ^
b0 ]
0\
0[
0Z
1Y
0X
0W
0V
b0 U
b0 T
b0 S
b0 R
b0 Q
b0 P
b0 O
b0 N
b0 M
b0 L
b0 K
b0 J
b0 I
b0 H
b0 G
b1 F
b0 E
b0 D
b0 C
b0 B
b0 A
b0 @
b0 ?
b0 >
b0 =
0<
b0 ;
b0 :
b0 9
b0 8
b1 7
06
05
04
b0 3
b0 2
b0 1
b0 0
b0 /
0.
0-
b0 ,
b0 +
b0 *
x)
x(
x'
x&
x%
b0 $
0#
0"
1!
$end
#1
0%
0)
0&
1|
0'
0(
0{
0z
b0 y
#1000
b1 +
b1 2
b1 L
#2000
b10 +
b10 2
b10 L
#3000
b11 +
b11 2
b11 L
#4000
b100 +
b100 2
b100 L
#5000
b101 +
b101 2
b101 L
#6000
b110 +
b110 2
b110 L
#7000
b111 +
b111 2
b111 L
#8000
b1000 +
b1000 2
b1000 L
#9000
b1001 +
b1001 2
b1001 L
#10000
b1010 +
b1010 2
b1010 L
#11000
b1011 +
b1011 2
b1011 L
#12000
b1100 +
b1100 2
b1100 L
#13000
b1101 +
b1101 2
b1101 L
#14000
b1110 +
b1110 2
b1110 L
#15000
b1111 +
b1111 2
b1111 L
#16000
0!
b1 $
b1 =
b1 B
1Z
1[
b1 9
b1 D
b1 P
1X
b1 >
b1 @
b1 O
b1 R
b1 :
b1 A
b1 M
b1 *
b1 0
b1 I
b1 K
b0 +
b0 2
b0 L
#16001
0|
b1 y
#17000
b1 +
b1 2
b1 L
#18000
b10 +
b10 2
b10 L
#19000
b11 +
b11 2
b11 L
#20000
b100 +
b100 2
b100 L
#21000
b101 +
b101 2
b101 L
#22000
b110 +
b110 2
b110 L
#23000
b111 +
b111 2
b111 L
#24000
b1000 +
b1000 2
b1000 L
#25000
b1001 +
b1001 2
b1001 L
#26000
b1010 +
b1010 2
b1010 L
#27000
b1011 +
b1011 2
b1011 L
#28000
b1100 +
b1100 2
b1100 L
#29000
b1101 +
b1101 2
b1101 L
#30000
b1110 +
b1110 2
b1110 L
#31000
b1111 +
b1111 2
b1111 L
#32000
b10 $
b10 =
b10 B
0Z
0[
1c
1d
b10 9
b10 D
b10 P
0X
1a
b10 >
b10 @
b10 O
b10 R
b10 :
b10 A
b10 M
b10 *
b10 0
b10 I
b10 K
b0 +
b0 2
b0 L
#32001
b10 y
#33000
b1 +
b1 2
b1 L
#34000
b10 +
b10 2
b10 L
#35000
b11 +
b11 2
b11 L
#36000
b100 +
b100 2
b100 L
#37000
b101 +
b101 2
b101 L
#38000
b110 +
b110 2
b110 L
#39000
b111 +
b111 2
b111 L
#40000
b1000 +
b1000 2
b1000 L
#41000
b1001 +
b1001 2
b1001 L
#42000
b1010 +
b1010 2
b1010 L
#43000
b1011 +
b1011 2
b1011 L
#44000
b1100 +
b1100 2
b1100 L
#45000
b1101 +
b1101 2
b1101 L
#46000
b1110 +
b1110 2
b1110 L
#47000
b1111 +
b1111 2
b1111 L
#48000
b11 $
b11 =
b11 B
1Z
1[
b11 9
b11 D
b11 P
1X
b11 >
b11 @
b11 O
b11 R
b11 :
b11 A
b11 M
b11 *
b11 0
b11 I
b11 K
b0 +
b0 2
b0 L
#48001
b11 y
#49000
b1 +
b1 2
b1 L
#50000
b10 +
b10 2
b10 L
#51000
b11 +
b11 2
b11 L
#52000
b100 +
b100 2
b100 L
#53000
b101 +
b101 2
b101 L
#54000
b110 +
b110 2
b110 L
#55000
b111 +
b111 2
b111 L
#56000
b1000 +
b1000 2
b1000 L
#57000
b1001 +
b1001 2
b1001 L
#58000
b1010 +
b1010 2
b1010 L
#59000
b1011 +
b1011 2
b1011 L
#60000
b1100 +
b1100 2
b1100 L
#61000
b1101 +
b1101 2
b1101 L
#62000
b1110 +
b1110 2
b1110 L
#63000
b1111 +
b1111 2
b1111 L
#64000
b100 $
b100 =
b100 B
0Z
0[
0c
0d
1l
1m
b100 9
b100 D
b100 P
0X
0a
1j
b100 >
b100 @
b100 O
b100 R
b100 :
b100 A
b100 M
b100 *
b100 0
b100 I
b100 K
b0 +
b0 2
b0 L
#64001
b100 y
#65000
b1 +
b1 2
b1 L
#66000
b10 +
b10 2
b10 L
#67000
b11 +
b11 2
b11 L
#68000
b100 +
b100 2
b100 L
#69000
b101 +
b101 2
b101 L
#70000
b110 +
b110 2
b110 L
#71000
b111 +
b111 2
b111 L
#72000
b1000 +
b1000 2
b1000 L
#73000
b1001 +
b1001 2
b1001 L
#74000
b1010 +
b1010 2
b1010 L
#75000
b1011 +
b1011 2
b1011 L
#76000
b1100 +
b1100 2
b1100 L
#77000
b1101 +
b1101 2
b1101 L
#78000
b1110 +
b1110 2
b1110 L
#79000
b1111 +
b1111 2
b1111 L
#80000
b101 $
b101 =
b101 B
1Z
1[
b101 9
b101 D
b101 P
1X
b101 >
b101 @
b101 O
b101 R
b101 :
b101 A
b101 M
b101 *
b101 0
b101 I
b101 K
b0 +
b0 2
b0 L
#80001
b101 y
#81000
b1 +
b1 2
b1 L
#82000
b10 +
b10 2
b10 L
#83000
b11 +
b11 2
b11 L
#84000
b100 +
b100 2
b100 L
#85000
b101 +
b101 2
b101 L
#86000
b110 +
b110 2
b110 L
#87000
b111 +
b111 2
b111 L
#88000
b1000 +
b1000 2
b1000 L
#89000
b1001 +
b1001 2
b1001 L
#90000
b1010 +
b1010 2
b1010 L
#91000
b1011 +
b1011 2
b1011 L
#92000
b1100 +
b1100 2
b1100 L
#93000
b1101 +
b1101 2
b1101 L
#94000
b1110 +
b1110 2
b1110 L
#95000
b1111 +
b1111 2
b1111 L
#96000
b110 $
b110 =
b110 B
0Z
0[
1c
1d
b110 9
b110 D
b110 P
0X
1a
b110 >
b110 @
b110 O
b110 R
b110 :
b110 A
b110 M
b110 *
b110 0
b110 I
b110 K
b0 +
b0 2
b0 L
#96001
b110 y
#97000
b1 +
b1 2
b1 L
#98000
b10 +
b10 2
b10 L
#99000
b11 +
b11 2
b11 L
#100000
b100 +
b100 2
b100 L
#101000
b101 +
b101 2
b101 L
#102000
b110 +
b110 2
b110 L
#103000
b111 +
b111 2
b111 L
#104000
b1000 +
b1000 2
b1000 L
#105000
b1001 +
b1001 2
b1001 L
#106000
b1010 +
b1010 2
b1010 L
#107000
b1011 +
b1011 2
b1011 L
#108000
b1100 +
b1100 2
b1100 L
#109000
b1101 +
b1101 2
b1101 L
#110000
b1110 +
b1110 2
b1110 L
#111000
b1111 +
b1111 2
b1111 L
#112000
b111 $
b111 =
b111 B
1Z
1[
b111 9
b111 D
b111 P
1X
b111 >
b111 @
b111 O
b111 R
b111 :
b111 A
b111 M
b111 *
b111 0
b111 I
b111 K
b0 +
b0 2
b0 L
#112001
b111 y
#113000
b1 +
b1 2
b1 L
#114000
b10 +
b10 2
b10 L
#115000
b11 +
b11 2
b11 L
#116000
b100 +
b100 2
b100 L
#117000
b101 +
b101 2
b101 L
#118000
b110 +
b110 2
b110 L
#119000
b111 +
b111 2
b111 L
#120000
b1000 +
b1000 2
b1000 L
#121000
b1001 +
b1001 2
b1001 L
#122000
b1010 +
b1010 2
b1010 L
#123000
b1011 +
b1011 2
b1011 L
#124000
b1100 +
b1100 2
b1100 L
#125000
b1101 +
b1101 2
b1101 L
#126000
b1110 +
b1110 2
b1110 L
#127000
b1111 +
b1111 2
b1111 L
#128000
1"
b1000 $
b1000 =
b1000 B
0Z
0[
0c
0d
0l
0m
1u
1v
b1000 9
b1000 D
b1000 P
0X
0a
0j
1s
b1000 >
b1000 @
b1000 O
b1000 R
b1000 :
b1000 A
b1000 M
b1000 *
b1000 0
b1000 I
b1000 K
b0 +
b0 2
b0 L
#128001
1{
b1000 y
#129000
b1 +
b1 2
b1 L
#130000
b10 +
b10 2
b10 L
#131000
b11 +
b11 2
b11 L
#132000
b100 +
b100 2
b100 L
#133000
b101 +
b101 2
b101 L
#134000
b110 +
b110 2
b110 L
#135000
b111 +
b111 2
b111 L
#136000
b1000 +
b1000 2
b1000 L
#137000
b1001 +
b1001 2
b1001 L
#138000
b1010 +
b1010 2
b1010 L
#139000
b1011 +
b1011 2
b1011 L
#140000
b1100 +
b1100 2
b1100 L
#141000
b1101 +
b1101 2
b1101 L
#142000
b1110 +
b1110 2
b1110 L
#143000
b1111 +
b1111 2
b1111 L
#144000
b1001 $
b1001 =
b1001 B
1Z
1[
b1001 9
b1001 D
b1001 P
1X
b1001 >
b1001 @
b1001 O
b1001 R
b1001 :
b1001 A
b1001 M
b1001 *
b1001 0
b1001 I
b1001 K
b0 +
b0 2
b0 L
#144001
b1001 y
#145000
b1 +
b1 2
b1 L
#146000
b10 +
b10 2
b10 L
#147000
b11 +
b11 2
b11 L
#148000
b100 +
b100 2
b100 L
#149000
b101 +
b101 2
b101 L
#150000
b110 +
b110 2
b110 L
#151000
b111 +
b111 2
b111 L
#152000
b1000 +
b1000 2
b1000 L
#153000
b1001 +
b1001 2
b1001 L
#154000
b1010 +
b1010 2
b1010 L
#155000
b1011 +
b1011 2
b1011 L
#156000
b1100 +
b1100 2
b1100 L
#157000
b1101 +
b1101 2
b1101 L
#158000
b1110 +
b1110 2
b1110 L
#159000
b1111 +
b1111 2
b1111 L
#160000
b1010 $
b1010 =
b1010 B
0Z
0[
1c
1d
b1010 9
b1010 D
b1010 P
0X
1a
b1010 >
b1010 @
b1010 O
b1010 R
b1010 :
b1010 A
b1010 M
b1010 *
b1010 0
b1010 I
b1010 K
b0 +
b0 2
b0 L
#160001
b1010 y
#161000
b1 +
b1 2
b1 L
#162000
b10 +
b10 2
b10 L
#163000
b11 +
b11 2
b11 L
#164000
b100 +
b100 2
b100 L
#165000
b101 +
b101 2
b101 L
#166000
b110 +
b110 2
b110 L
#167000
b111 +
b111 2
b111 L
#168000
b1000 +
b1000 2
b1000 L
#169000
b1001 +
b1001 2
b1001 L
#170000
b1010 +
b1010 2
b1010 L
#171000
b1011 +
b1011 2
b1011 L
#172000
b1100 +
b1100 2
b1100 L
#173000
b1101 +
b1101 2
b1101 L
#174000
b1110 +
b1110 2
b1110 L
#175000
b1111 +
b1111 2
b1111 L
#176000
b1011 $
b1011 =
b1011 B
1Z
1[
b1011 9
b1011 D
b1011 P
1X
b1011 >
b1011 @
b1011 O
b1011 R
b1011 :
b1011 A
b1011 M
b1011 *
b1011 0
b1011 I
b1011 K
b0 +
b0 2
b0 L
#176001
b1011 y
#177000
b1 +
b1 2
b1 L
#178000
b10 +
b10 2
b10 L
#179000
b11 +
b11 2
b11 L
#180000
b100 +
b100 2
b100 L
#181000
b101 +
b101 2
b101 L
#182000
b110 +
b110 2
b110 L
#183000
b111 +
b111 2
b111 L
#184000
b1000 +
b1000 2
b1000 L
#185000
b1001 +
b1001 2
b1001 L
#186000
b1010 +
b1010 2
b1010 L
#187000
b1011 +
b1011 2
b1011 L
#188000
b1100 +
b1100 2
b1100 L
#189000
b1101 +
b1101 2
b1101 L
#190000
b1110 +
b1110 2
b1110 L
#191000
b1111 +
b1111 2
b1111 L
#192000
b1100 $
b1100 =
b1100 B
0Z
0[
0c
0d
1l
1m
b1100 9
b1100 D
b1100 P
0X
0a
1j
b1100 >
b1100 @
b1100 O
b1100 R
b1100 :
b1100 A
b1100 M
b1100 *
b1100 0
b1100 I
b1100 K
b0 +
b0 2
b0 L
#192001
b1100 y
#193000
b1 +
b1 2
b1 L
#194000
b10 +
b10 2
b10 L
#195000
b11 +
b11 2
b11 L
#196000
b100 +
b100 2
b100 L
#197000
b101 +
b101 2
b101 L
#198000
b110 +
b110 2
b110 L
#199000
b111 +
b111 2
b111 L
#200000
b1000 +
b1000 2
b1000 L
#201000
b1001 +
b1001 2
b1001 L
#202000
b1010 +
b1010 2
b1010 L
#203000
b1011 +
b1011 2
b1011 L
#204000
b1100 +
b1100 2
b1100 L
#205000
b1101 +
b1101 2
b1101 L
#206000
b1110 +
b1110 2
b1110 L
#207000
b1111 +
b1111 2
b1111 L
#208000
b1101 $
b1101 =
b1101 B
1Z
1[
b1101 9
b1101 D
b1101 P
1X
b1101 >
b1101 @
b1101 O
b1101 R
b1101 :
b1101 A
b1101 M
b1101 *
b1101 0
b1101 I
b1101 K
b0 +
b0 2
b0 L
#208001
b1101 y
#209000
b1 +
b1 2
b1 L
#210000
b10 +
b10 2
b10 L
#211000
b11 +
b11 2
b11 L
#212000
b100 +
b100 2
b100 L
#213000
b101 +
b101 2
b101 L
#214000
b110 +
b110 2
b110 L
#215000
b111 +
b111 2
b111 L
#216000
b1000 +
b1000 2
b1000 L
#217000
b1001 +
b1001 2
b1001 L
#218000
b1010 +
b1010 2
b1010 L
#219000
b1011 +
b1011 2
b1011 L
#220000
b1100 +
b1100 2
b1100 L
#221000
b1101 +
b1101 2
b1101 L
#222000
b1110 +
b1110 2
b1110 L
#223000
b1111 +
b1111 2
b1111 L
#224000
b1110 $
b1110 =
b1110 B
0Z
0[
1c
1d
b1110 9
b1110 D
b1110 P
0X
1a
b1110 >
b1110 @
b1110 O
b1110 R
b1110 :
b1110 A
b1110 M
b1110 *
b1110 0
b1110 I
b1110 K
b0 +
b0 2
b0 L
#224001
b1110 y
#225000
b1 +
b1 2
b1 L
#226000
b10 +
b10 2
b10 L
#227000
b11 +
b11 2
b11 L
#228000
b100 +
b100 2
b100 L
#229000
b101 +
b101 2
b101 L
#230000
b110 +
b110 2
b110 L
#231000
b111 +
b111 2
b111 L
#232000
b1000 +
b1000 2
b1000 L
#233000
b1001 +
b1001 2
b1001 L
#234000
b1010 +
b1010 2
b1010 L
#235000
b1011 +
b1011 2
b1011 L
#236000
b1100 +
b1100 2
b1100 L
#237000
b1101 +
b1101 2
b1101 L
#238000
b1110 +
b1110 2
b1110 L
#239000
b1111 +
b1111 2
b1111 L
#240000
b1111 $
b1111 =
b1111 B
1Z
1[
b1111 9
b1111 D
b1111 P
1X
b1111 >
b1111 @
b1111 O
b1111 R
b1111 :
b1111 A
b1111 M
b1111 *
b1111 0
b1111 I
b1111 K
b0 +
b0 2
b0 L
#240001
b1111 y
#241000
b1 +
b1 2
b1 L
#242000
b10 +
b10 2
b10 L
#243000
b11 +
b11 2
b11 L
#244000
b100 +
b100 2
b100 L
#245000
b101 +
b101 2
b101 L
#246000
b110 +
b110 2
b110 L
#247000
b111 +
b111 2
b111 L
#248000
b1000 +
b1000 2
b1000 L
#249000
b1001 +
b1001 2
b1001 L
#250000
b1010 +
b1010 2
b1010 L
#251000
b1011 +
b1011 2
b1011 L
#252000
b1100 +
b1100 2
b1100 L
#253000
b1101 +
b1101 2
b1101 L
#254000
b1110 +
b1110 2
b1110 L
#255000
b1111 +
b1111 2
b1111 L
#256000
0Z
0[
0c
0d
0l
0m
0u
0v
0"
0!
0X
0a
0j
0s
b1 $
b1 =
b1 B
b0 >
b0 @
b0 O
b0 R
b1 9
b1 D
b1 P
0#
b0 :
b0 A
b0 M
1-
b0 *
b0 0
b0 I
b0 K
b0 +
b0 2
b0 L
#256001
0{
b1 y
#257000
b1 +
b1 2
b1 L
#258000
b10 +
b10 2
b10 L
#259000
b11 +
b11 2
b11 L
#260000
b100 +
b100 2
b100 L
#261000
b101 +
b101 2
b101 L
#262000
b110 +
b110 2
b110 L
#263000
b111 +
b111 2
b111 L
#264000
b1000 +
b1000 2
b1000 L
#265000
b1001 +
b1001 2
b1001 L
#266000
b1010 +
b1010 2
b1010 L
#267000
b1011 +
b1011 2
b1011 L
#268000
b1100 +
b1100 2
b1100 L
#269000
b1101 +
b1101 2
b1101 L
#270000
b1110 +
b1110 2
b1110 L
#271000
b1111 +
b1111 2
b1111 L
#272000
b10 $
b10 =
b10 B
1Z
1[
b10 9
b10 D
b10 P
1X
b1 >
b1 @
b1 O
b1 R
b1 :
b1 A
b1 M
b1 *
b1 0
b1 I
b1 K
b0 +
b0 2
b0 L
#272001
b10 y
#273000
b1 +
b1 2
b1 L
#274000
b10 +
b10 2
b10 L
#275000
b11 +
b11 2
b11 L
#276000
b100 +
b100 2
b100 L
#277000
b101 +
b101 2
b101 L
#278000
b110 +
b110 2
b110 L
#279000
b111 +
b111 2
b111 L
#280000
b1000 +
b1000 2
b1000 L
#281000
b1001 +
b1001 2
b1001 L
#282000
b1010 +
b1010 2
b1010 L
#283000
b1011 +
b1011 2
b1011 L
#284000
b1100 +
b1100 2
b1100 L
#285000
b1101 +
b1101 2
b1101 L
#286000
b1110 +
b1110 2
b1110 L
#287000
b1111 +
b1111 2
b1111 L
#288000
b11 $
b11 =
b11 B
0Z
0[
1c
1d
b11 9
b11 D
b11 P
0X
1a
b10 >
b10 @
b10 O
b10 R
b10 :
b10 A
b10 M
b10 *
b10 0
b10 I
b10 K
b0 +
b0 2
b0 L
#288001
b11 y
#289000
b1 +
b1 2
b1 L
#290000
b10 +
b10 2
b10 L
#291000
b11 +
b11 2
b11 L
#292000
b100 +
b100 2
b100 L
#293000
b101 +
b101 2
b101 L
#294000
b110 +
b110 2
b110 L
#295000
b111 +
b111 2
b111 L
#296000
b1000 +
b1000 2
b1000 L
#297000
b1001 +
b1001 2
b1001 L
#298000
b1010 +
b1010 2
b1010 L
#299000
b1011 +
b1011 2
b1011 L
#300000
b1100 +
b1100 2
b1100 L
#301000
b1101 +
b1101 2
b1101 L
#302000
b1110 +
b1110 2
b1110 L
#303000
b1111 +
b1111 2
b1111 L
#304000
b100 $
b100 =
b100 B
1Z
1[
b100 9
b100 D
b100 P
1X
b11 >
b11 @
b11 O
b11 R
b11 :
b11 A
b11 M
b11 *
b11 0
b11 I
b11 K
b0 +
b0 2
b0 L
#304001
b100 y
#305000
b1 +
b1 2
b1 L
#306000
b10 +
b10 2
b10 L
#307000
b11 +
b11 2
b11 L
#308000
b100 +
b100 2
b100 L
#309000
b101 +
b101 2
b101 L
#310000
b110 +
b110 2
b110 L
#311000
b111 +
b111 2
b111 L
#312000
b1000 +
b1000 2
b1000 L
#313000
b1001 +
b1001 2
b1001 L
#314000
b1010 +
b1010 2
b1010 L
#315000
b1011 +
b1011 2
b1011 L
#316000
b1100 +
b1100 2
b1100 L
#317000
b1101 +
b1101 2
b1101 L
#318000
b1110 +
b1110 2
b1110 L
#319000
b1111 +
b1111 2
b1111 L
#320000
b101 $
b101 =
b101 B
0Z
0[
0c
0d
1l
1m
b101 9
b101 D
b101 P
0X
0a
1j
b100 >
b100 @
b100 O
b100 R
b100 :
b100 A
b100 M
b100 *
b100 0
b100 I
b100 K
b0 +
b0 2
b0 L
#320001
b101 y
#321000
b1 +
b1 2
b1 L
#322000
b10 +
b10 2
b10 L
#323000
b11 +
b11 2
b11 L
#324000
b100 +
b100 2
b100 L
#325000
b101 +
b101 2
b101 L
#326000
b110 +
b110 2
b110 L
#327000
b111 +
b111 2
b111 L
#328000
b1000 +
b1000 2
b1000 L
#329000
b1001 +
b1001 2
b1001 L
#330000
b1010 +
b1010 2
b1010 L
#331000
b1011 +
b1011 2
b1011 L
#332000
b1100 +
b1100 2
b1100 L
#333000
b1101 +
b1101 2
b1101 L
#334000
b1110 +
b1110 2
b1110 L
#335000
b1111 +
b1111 2
b1111 L
#336000
b110 $
b110 =
b110 B
1Z
1[
b110 9
b110 D
b110 P
1X
b101 >
b101 @
b101 O
b101 R
b101 :
b101 A
b101 M
b101 *
b101 0
b101 I
b101 K
b0 +
b0 2
b0 L
#336001
b110 y
#337000
b1 +
b1 2
b1 L
#338000
b10 +
b10 2
b10 L
#339000
b11 +
b11 2
b11 L
#340000
b100 +
b100 2
b100 L
#341000
b101 +
b101 2
b101 L
#342000
b110 +
b110 2
b110 L
#343000
b111 +
b111 2
b111 L
#344000
b1000 +
b1000 2
b1000 L
#345000
b1001 +
b1001 2
b1001 L
#346000
b1010 +
b1010 2
b1010 L
#347000
b1011 +
b1011 2
b1011 L
#348000
b1100 +
b1100 2
b1100 L
#349000
b1101 +
b1101 2
b1101 L
#350000
b1110 +
b1110 2
b1110 L
#351000
b1111 +
b1111 2
b1111 L
#352000
b111 $
b111 =
b111 B
0Z
0[
1c
1d
b111 9
b111 D
b111 P
0X
1a
b110 >
b110 @
b110 O
b110 R
b110 :
b110 A
b110 M
b110 *
b110 0
b110 I
b110 K
b0 +
b0 2
b0 L
#352001
b111 y
#353000
b1 +
b1 2
b1 L
#354000
b10 +
b10 2
b10 L
#355000
b11 +
b11 2
b11 L
#356000
b100 +
b100 2
b100 L
#357000
b101 +
b101 2
b101 L
#358000
b110 +
b110 2
b110 L
#359000
b111 +
b111 2
b111 L
#360000
b1000 +
b1000 2
b1000 L
#361000
b1001 +
b1001 2
b1001 L
#362000
b1010 +
b1010 2
b1010 L
#363000
b1011 +
b1011 2
b1011 L
#364000
b1100 +
b1100 2
b1100 L
#365000
b1101 +
b1101 2
b1101 L
#366000
b1110 +
b1110 2
b1110 L
#367000
b1111 +
b1111 2
b1111 L
#368000
1"
b1000 $
b1000 =
b1000 B
1Z
1[
b1000 9
b1000 D
b1000 P
1X
b111 >
b111 @
b111 O
b111 R
b111 :
b111 A
b111 M
b111 *
b111 0
b111 I
b111 K
b0 +
b0 2
b0 L
#368001
1{
b1000 y
#369000
b1 +
b1 2
b1 L
#370000
b10 +
b10 2
b10 L
#371000
b11 +
b11 2
b11 L
#372000
b100 +
b100 2
b100 L
#373000
b101 +
b101 2
b101 L
#374000
b110 +
b110 2
b110 L
#375000
b111 +
b111 2
b111 L
#376000
b1000 +
b1000 2
b1000 L
#377000
b1001 +
b1001 2
b1001 L
#378000
b1010 +
b1010 2
b1010 L
#379000
b1011 +
b1011 2
b1011 L
#380000
b1100 +
b1100 2
b1100 L
#381000
b1101 +
b1101 2
b1101 L
#382000
b1110 +
b1110 2
b1110 L
#383000
b1111 +
b1111 2
b1111 L
#384000
b1001 $
b1001 =
b1001 B
0Z
0[
0c
0d
0l
0m
1u
1v
b1001 9
b1001 D
b1001 P
0X
0a
0j
1s
b1000 >
b1000 @
b1000 O
b1000 R
b1000 :
b1000 A
b1000 M
b1000 *
b1000 0
b1000 I
b1000 K
b0 +
b0 2
b0 L
#384001
b1001 y
#385000
b1 +
b1 2
b1 L
#386000
b10 +
b10 2
b10 L
#387000
b11 +
b11 2
b11 L
#388000
b100 +
b100 2
b100 L
#389000
b101 +
b101 2
b101 L
#390000
b110 +
b110 2
b110 L
#391000
b111 +
b111 2
b111 L
#392000
b1000 +
b1000 2
b1000 L
#393000
b1001 +
b1001 2
b1001 L
#394000
b1010 +
b1010 2
b1010 L
#395000
b1011 +
b1011 2
b1011 L
#396000
b1100 +
b1100 2
b1100 L
#397000
b1101 +
b1101 2
b1101 L
#398000
b1110 +
b1110 2
b1110 L
#399000
b1111 +
b1111 2
b1111 L
#400000
b1010 $
b1010 =
b1010 B
1Z
1[
b1010 9
b1010 D
b1010 P
1X
b1001 >
b1001 @
b1001 O
b1001 R
b1001 :
b1001 A
b1001 M
b1001 *
b1001 0
b1001 I
b1001 K
b0 +
b0 2
b0 L
#400001
b1010 y
#401000
b1 +
b1 2
b1 L
#402000
b10 +
b10 2
b10 L
#403000
b11 +
b11 2
b11 L
#404000
b100 +
b100 2
b100 L
#405000
b101 +
b101 2
b101 L
#406000
b110 +
b110 2
b110 L
#407000
b111 +
b111 2
b111 L
#408000
b1000 +
b1000 2
b1000 L
#409000
b1001 +
b1001 2
b1001 L
#410000
b1010 +
b1010 2
b1010 L
#411000
b1011 +
b1011 2
b1011 L
#412000
b1100 +
b1100 2
b1100 L
#413000
b1101 +
b1101 2
b1101 L
#414000
b1110 +
b1110 2
b1110 L
#415000
b1111 +
b1111 2
b1111 L
#416000
b1011 $
b1011 =
b1011 B
0Z
0[
1c
1d
b1011 9
b1011 D
b1011 P
0X
1a
b1010 >
b1010 @
b1010 O
b1010 R
b1010 :
b1010 A
b1010 M
b1010 *
b1010 0
b1010 I
b1010 K
b0 +
b0 2
b0 L
#416001
b1011 y
#417000
b1 +
b1 2
b1 L
#418000
b10 +
b10 2
b10 L
#419000
b11 +
b11 2
b11 L
#420000
b100 +
b100 2
b100 L
#421000
b101 +
b101 2
b101 L
#422000
b110 +
b110 2
b110 L
#423000
b111 +
b111 2
b111 L
#424000
b1000 +
b1000 2
b1000 L
#425000
b1001 +
b1001 2
b1001 L
#426000
b1010 +
b1010 2
b1010 L
#427000
b1011 +
b1011 2
b1011 L
#428000
b1100 +
b1100 2
b1100 L
#429000
b1101 +
b1101 2
b1101 L
#430000
b1110 +
b1110 2
b1110 L
#431000
b1111 +
b1111 2
b1111 L
#432000
b1100 $
b1100 =
b1100 B
1Z
1[
b1100 9
b1100 D
b1100 P
1X
b1011 >
b1011 @
b1011 O
b1011 R
b1011 :
b1011 A
b1011 M
b1011 *
b1011 0
b1011 I
b1011 K
b0 +
b0 2
b0 L
#432001
b1100 y
#433000
b1 +
b1 2
b1 L
#434000
b10 +
b10 2
b10 L
#435000
b11 +
b11 2
b11 L
#436000
b100 +
b100 2
b100 L
#437000
b101 +
b101 2
b101 L
#438000
b110 +
b110 2
b110 L
#439000
b111 +
b111 2
b111 L
#440000
b1000 +
b1000 2
b1000 L
